%YAML 1.1
%TAG !u! tag:unity3d.com,2011:
--- !u!114 &11400000
MonoBehaviour:
  m_ObjectHideFlags: 0
  m_CorrespondingSourceObject: {fileID: 0}
  m_PrefabInstance: {fileID: 0}
  m_PrefabAsset: {fileID: 0}
  m_GameObject: {fileID: 0}
  m_Enabled: 1
  m_EditorHideFlags: 0
  m_Script: {fileID: 11500000, guid: d22c9c2c32ad68541b9dbb98efbc33dc, type: 3}
  m_Name: BanditParams
  m_EditorClassIdentifier: 
  MinWalkSpeed: 0
  MaxWalkSpeed: 0
  MinTimeToGetScaredChance: 0
  MaxTimeToGetScaredChance: 0
  MinChanceToGetScared: 0
  MaxChanceToGetScared: 0
  TimeToJumpToNextCart: 0
  JumpHeight: 0
  MinHp: 1
  MaxHp: 2.2
  VulnerabilityMinDmgPerChangeOfSpeed: 0.01
  VulnerabilityMaxDmgPerChangeOfSpeed: 0.04
  SlipperyDamageMultiplier: 3
  MinDmgPerChangeOfSpeed: 1.3
  MaxDmgPerChangeOfSpeed: 2
  MinComfortToWalkFast: 0
  MaxComfortToWalkFast: 0
  MinComfortToWalkSlowly: 0
  MaxComfortToWalkSlowly: 0
